{
  "parent": "minecraft:recipes/root",
  "rewards": {
    "recipes": [
      "primallib:bark_jungle_from_log"
    ]
  },
  "criteria": {
    "has_item": {
      "trigger": "minecraft:inventory_changed",
      "conditions": {
        "items": [
          {
            "item": "minecraft:log",
            "data": 3
          }
        ]
      }
    },
    "has_recipe": {
      "trigger": "minecraft:recipe_unlocked",
      "conditions": {
        "recipe": "primallib:bark_jungle_from_log"
      }
    }
  },
  "requirements": [
    [
      "has_item",
      "has_recipe"
    ]
  ]
}