{
  "conditions": [
    {
      "type": "primallib:is_recipe_allowed",
      "primal_recipe_group": "bark_strips_generic"
    }
  ],
  "type": "forge:ore_shapeless",
  "ingredients": [
    {
      "type": "forge:ore_dict",
      "ore": "barkWood"
    }
  ],
  "result": {
    "item": "primallib:bark_strips_generic",
    "count": 4
  }
}