{
  "conditions": [
    {
      "type": "primallib:is_recipe_allowed",
      "primal_recipe_group": "bark_from_log_NTP"
    }
  ],
  "type": "primallib:primallib_recipe",
  "ingredients": [
    {
      "item": "notreepunching:mattock/gold"
    },
    {
      "item": "minecraft:log",
      "data": 3
    }
  ],
  "result": {
    "item": "primallib:bark_jungle",
    "count": 4
  }
}
