{
  "conditions": [
    {
      "type": "primallib:is_recipe_allowed",
      "primal_recipe_group": "planks_NTP"
    }
  ],
  "type": "forge:ore_shaped",
  "pattern": [
    "S",
    "L"
  ],
  "key": {
    "S": {
      "item": "notreepunching:saw/copper",
      "data": 32767
    },
    "L": {
      "item": "primallib:log_stripped_birch"
    }
  },
  "result": {
    "item": "minecraft:planks",
    "data": 2,
    "count": 4
  }
}
