{
  "_comment": "Log1 data: 0=oak, 1=spruce, 2=birch, 3=jungle; Log2 data: 0=acacia, 1=dark_oak",
  "conditions": [
    {
      "type": "primallib:is_recipe_allowed",
      "primal_recipe_group": "planks_from_stripped_logs"
    }
  ],
  "type": "primallib:primallib_recipe",
  "ingredients": [
    {
      "item": "primallib:log_stripped_acacia"
    }
  ],
  "result": {
    "item": "minecraft:planks",
    "data": 4
  }
}